<svg width="33" height="29" viewBox="0 0 33 29" fill="none" xmlns="http://www.w3.org/2000/svg">
<path d="M24.3945 9.79971L21.828 20.0656C21.828 22.0322 20.2941 23.6252 18.4061 23.6252H8.99245C7.1012 23.6252 5.5705 22.0322 5.5705 20.0656L3.85952 9.79971H3.86936L3.32198 6.50559H0.998065C0.526072 6.50559 0.142578 6.10899 0.142578 5.61733C0.142578 5.12567 0.526072 4.72906 0.998065 4.72906H4.5839L5.54428 9.79971H24.3945ZM5.85566 11.5762L7.28147 20.0623C7.28147 21.0456 8.04846 21.8421 8.99245 21.8421H18.4061C19.3501 21.8421 20.1171 21.0456 20.1171 20.0623L22.2574 11.5762H5.85566ZM8.99245 25.4017C9.93643 25.4017 10.7034 26.1982 10.7034 27.1815C10.7034 28.1648 9.93643 28.9613 8.99245 28.9613C8.04846 28.9613 7.28147 28.1648 7.28147 27.1815C7.28147 26.1982 8.04846 25.4017 8.99245 25.4017ZM17.5506 25.4017C18.4946 25.4017 19.2616 26.1982 19.2616 27.1815C19.2616 28.1648 18.4946 28.9613 17.5506 28.9613C16.6066 28.9613 15.8396 28.1648 15.8396 27.1815C15.8396 26.1982 16.6066 25.4017 17.5506 25.4017Z" fill="white"/>
<path d="M29.003 9.38996H27.1314V6.12534H23.8668V4.25375H27.1314V0.989136H29.003V4.25375H32.2644V6.12534H29.003V9.38996Z" fill="white"/>
</svg>
