<svg width="95" height="95" viewBox="0 0 95 95" fill="none" xmlns="http://www.w3.org/2000/svg">
<path d="M79.9863 77.3252H24.4016C23.2314 77.3252 22.2722 78.2693 22.2722 79.4423C22.2722 80.6057 23.2218 81.5593 24.4016 81.5593H79.9767C81.1469 81.5593 82.1061 80.6152 82.1061 79.4423C82.1061 78.2693 81.1565 77.3252 79.9863 77.3252Z" fill="#4D91E0"/>
<path d="M88.5518 0.919922H15.8073C12.268 0.919922 9.44796 3.7713 9.44796 7.29022V13.6033H5.24674C2.88715 13.6033 0.940002 15.5678 0.940002 17.9233V68.9715C0.940002 71.3174 2.88715 73.2247 5.24674 73.2247H9.44796V88.5019C9.44796 92.0209 12.268 94.9199 15.8073 94.9199H88.5518C92.0912 94.9199 94.94 92.0209 94.94 88.5019V7.29022C94.94 3.7713 92.0912 0.919922 88.5518 0.919922ZM13.7067 27.822C13.7067 26.6204 14.6947 25.6477 15.9033 25.6477C17.1118 25.6477 18.0998 26.6204 18.0998 27.822V50.9L29.4661 33.4485C29.869 32.8286 30.6076 32.4376 31.3461 32.4376C31.3461 32.4376 31.3461 32.4376 31.3557 32.4376C32.1039 32.4376 32.8424 32.8286 33.2453 33.458L44.4486 50.8333V27.822C44.4486 26.6204 45.4365 25.6477 46.6451 25.6477C47.8537 25.6477 48.8416 26.6204 48.8416 27.822V58.2717C48.8416 59.2348 48.1414 60.0836 47.2014 60.3601C47 60.4173 46.7314 60.4459 46.53 60.4459C45.801 60.4459 45.1008 60.0836 44.6884 59.4446L31.3269 38.6553L17.8312 59.4446C17.4188 60.074 16.7282 60.4364 15.9992 60.4364C15.7978 60.4364 15.5292 60.4078 15.3278 60.3506C14.3973 60.074 13.7067 59.2348 13.7067 58.2717V27.822ZM90.6908 88.5115C90.6908 89.6845 89.7316 90.6953 88.5518 90.6953H15.8073C14.6276 90.6953 13.6971 89.6845 13.6971 88.5115V73.2342H56.5918C58.9514 73.2342 60.9082 71.3269 60.9082 68.981V68.8666H79.9863C81.1565 68.8666 82.1157 67.9225 82.1157 66.7495C82.1157 65.5765 81.1661 64.6324 79.9863 64.6324H60.9082V56.1737H79.9863C81.1565 56.1737 82.1157 55.2295 82.1157 54.0566C82.1157 52.8836 81.1661 51.9395 79.9863 51.9395H60.9082V43.3472H79.9863C81.1565 43.3472 82.1157 42.4031 82.1157 41.2302C82.1157 40.0667 81.1661 39.1131 79.9863 39.1131H60.9082V30.5208H79.9863C81.1565 30.5208 82.1157 29.5767 82.1157 28.4037C82.1157 27.2403 81.1661 26.2867 79.9863 26.2867H60.9082V17.9137C60.9082 17.8851 60.9082 17.8565 60.9082 17.8279H79.9863C81.1565 17.8279 82.1157 16.8838 82.1157 15.7108C82.1157 14.5474 81.1661 13.5938 79.9863 13.5938H56.5918H24.4016H13.7067V7.29022C13.7067 6.11724 14.6371 5.14453 15.8169 5.14453H88.5614C89.7412 5.14453 90.7004 6.11724 90.7004 7.29022L90.6908 88.5115Z" fill="#4D91E0"/>
</svg>
